%YAML 1.1
%TAG !u! tag:unity3d.com,2011:
--- !u!74 &7400000
AnimationClip:
  m_ObjectHideFlags: 0
  m_CorrespondingSourceObject: {fileID: 0}
  m_PrefabInstance: {fileID: 0}
  m_PrefabAsset: {fileID: 0}
  m_Name: Action
  serializedVersion: 6
  m_Legacy: 0
  m_Compressed: 0
  m_UseHighQualityCurve: 1
  m_RotationCurves: []
  m_CompressedRotationCurves: []
  m_EulerCurves: []
  m_PositionCurves: []
  m_ScaleCurves: []
  m_FloatCurves: []
  m_PPtrCurves:
  - curve:
    - time: 0
      value: {fileID: -3123040088647489590, guid: 5101c56bd7120ae418f9af0cfe3bae5e, type: 3}
    attribute: m_Sprite
    path: 6RightLeg
    classID: 212
    script: {fileID: 0}
  - curve:
    - time: 0
      value: {fileID: -780509717195908807, guid: 5101c56bd7120ae418f9af0cfe3bae5e, type: 3}
    attribute: m_Sprite
    path: 5LeftLeg
    classID: 212
    script: {fileID: 0}
  - curve:
    - time: 0
      value: {fileID: -8824028670136153183, guid: 5101c56bd7120ae418f9af0cfe3bae5e, type: 3}
    attribute: m_Sprite
    path: 4RightArm
    classID: 212
    script: {fileID: 0}
  - curve:
    - time: 0
      value: {fileID: -4942418510040087552, guid: 5101c56bd7120ae418f9af0cfe3bae5e, type: 3}
    attribute: m_Sprite
    path: 3LeftArm
    classID: 212
    script: {fileID: 0}
  - curve:
    - time: 0
      value: {fileID: -5897866243137495608, guid: 5101c56bd7120ae418f9af0cfe3bae5e, type: 3}
    attribute: m_Sprite
    path: 2Body
    classID: 212
    script: {fileID: 0}
  - curve:
    - time: 0
      value: {fileID: 6674415654204352426, guid: 5101c56bd7120ae418f9af0cfe3bae5e, type: 3}
    attribute: m_Sprite
    path: 1Head
    classID: 212
    script: {fileID: 0}
  m_SampleRate: 10
  m_WrapMode: 0
  m_Bounds:
    m_Center: {x: 0, y: 0, z: 0}
    m_Extent: {x: 0, y: 0, z: 0}
  m_ClipBindingConstant:
    genericBindings:
    - serializedVersion: 2
      path: 1480424291
      attribute: 0
      script: {fileID: 0}
      typeID: 212
      customType: 23
      isPPtrCurve: 1
    - serializedVersion: 2
      path: 862890255
      attribute: 0
      script: {fileID: 0}
      typeID: 212
      customType: 23
      isPPtrCurve: 1
    - serializedVersion: 2
      path: 2605034814
      attribute: 0
      script: {fileID: 0}
      typeID: 212
      customType: 23
      isPPtrCurve: 1
    - serializedVersion: 2
      path: 412048979
      attribute: 0
      script: {fileID: 0}
      typeID: 212
      customType: 23
      isPPtrCurve: 1
    - serializedVersion: 2
      path: 1193109355
      attribute: 0
      script: {fileID: 0}
      typeID: 212
      customType: 23
      isPPtrCurve: 1
    - serializedVersion: 2
      path: 2095505557
      attribute: 0
      script: {fileID: 0}
      typeID: 212
      customType: 23
      isPPtrCurve: 1
    pptrCurveMapping:
    - {fileID: -3123040088647489590, guid: 5101c56bd7120ae418f9af0cfe3bae5e, type: 3}
    - {fileID: -780509717195908807, guid: 5101c56bd7120ae418f9af0cfe3bae5e, type: 3}
    - {fileID: -8824028670136153183, guid: 5101c56bd7120ae418f9af0cfe3bae5e, type: 3}
    - {fileID: -4942418510040087552, guid: 5101c56bd7120ae418f9af0cfe3bae5e, type: 3}
    - {fileID: -5897866243137495608, guid: 5101c56bd7120ae418f9af0cfe3bae5e, type: 3}
    - {fileID: 6674415654204352426, guid: 5101c56bd7120ae418f9af0cfe3bae5e, type: 3}
  m_AnimationClipSettings:
    serializedVersion: 2
    m_AdditiveReferencePoseClip: {fileID: 0}
    m_AdditiveReferencePoseTime: 0
    m_StartTime: 0
    m_StopTime: 0.1
    m_OrientationOffsetY: 0
    m_Level: 0
    m_CycleOffset: 0
    m_HasAdditiveReferencePose: 0
    m_LoopTime: 1
    m_LoopBlend: 0
    m_LoopBlendOrientation: 0
    m_LoopBlendPositionY: 0
    m_LoopBlendPositionXZ: 0
    m_KeepOriginalOrientation: 0
    m_KeepOriginalPositionY: 1
    m_KeepOriginalPositionXZ: 0
    m_HeightFromFeet: 0
    m_Mirror: 0
  m_EditorCurves: []
  m_EulerEditorCurves: []
  m_HasGenericRootTransform: 0
  m_HasMotionFloatCurves: 0
  m_Events: []
